{
    "16進位制": "16进位制",
    "16進位": "16进制",
    "IP位址": "IP地址",
    "一份子": "一分子",
    "全球資訊網": "万维网",
    "三十六著": "三十六着",
    "三極體": "三极管",
    "下著": "下着",
    "下著錄": "下著录",
    "下著稱": "下著称",
    "不著": "不着",
    "不著書": "不著书",
    "不著錄": "不著录",
    "不著稱": "不著称",
    "與著": "与着",
    "與著書": "与著书",
    "與著作": "与著作",
    "與著名": "与著名",
    "與著錄": "与著录",
    "與著稱": "与著称",
    "與著者": "与著者",
    "與著述": "与著述",
    "醜著": "丑着",
    "醜著書": "丑著书",
    "醜著作": "丑著作",
    "醜著名": "丑著名",
    "醜著錄": "丑著录",
    "醜著稱": "丑著称",
    "醜著者": "丑著者",
    "醜著述": "丑著述",
    "邱吉爾": "丘吉尔",
    "C型肝炎": "丙型肝炎",
    "C肝": "丙肝",
    "東協會": "东协会",
    "東協助": "东协助",
    "東協議": "东协议",
    "東南亞國家協會": "东南亚国家联盟",
    "亚细安": "东盟",
    "東協": "东盟",
    "仲介": "中介",
    "臨著": "临着",
    "臨著書": "临著书",
    "臨著作": "临著作",
    "臨著名": "临著名",
    "臨著錄": "临著录",
    "臨著稱": "临著称",
    "臨著者": "临著者",
    "臨著述": "临著述",
    "為著": "为着",
    "為著《": "为著《",
    "為著作": "为著作",
    "為著名": "为著名",
    "為著錄": "为著录",
    "為著稱": "为著称",
    "為著者": "为著者",
    "為著述": "为著述",
    "主機板": "主板",
    "麗著": "丽着",
    "麗著書": "丽著书",
    "麗著作": "丽著作",
    "麗著名": "丽著名",
    "麗著錄": "丽著录",
    "麗著稱": "丽著称",
    "麗著者": "丽著者",
    "麗著述": "丽著述",
    "麼著": "么着",
    "烏龍麵": "乌冬面",
    "樂著": "乐着",
    "樂著書": "乐著书",
    "樂著作": "乐著作",
    "樂著名": "乐著名",
    "樂著錄": "乐著录",
    "樂著稱": "乐著称",
    "樂著者": "乐著者",
    "樂著述": "乐著述",
    "賈伯斯": "乔布斯",
    "喬治·歐威爾": "乔治·奥威尔",
    "乘著": "乘着",
    "乘著書": "乘著书",
    "乘著錄": "乘著录",
    "乘著稱": "乘著称",
    "B型肝炎": "乙型肝炎",
    "B肝": "乙肝",
    "吉力馬札羅": "乞力马扎罗",
    "葉門": "也门",
    "買帳": "买账",
    "了結他": "了结他",
    "爭著": "争着",
    "爭著書": "争著书",
    "爭著作": "争著作",
    "爭著名": "争著名",
    "爭著錄": "争著录",
    "爭著稱": "争著称",
    "爭著者": "争著者",
    "爭著述": "争著述",
    "二極體": "二极管",
    "二進位制": "二进位制",
    "二進位": "二进制",
    "網際網絡": "互联网",
    "網際網路": "互联网",
    "亞歷山卓": "亚历山大",
    "雅穆索戈": "亚穆苏克罗",
    "交帳": "交账",
    "亮著": "亮着",
    "亮著書": "亮著书",
    "亮著錄": "亮著录",
    "亮著稱": "亮著称",
    "人工智慧": "人工智能",
    "行人路": "人行道",
    "甚麼": "什么",
    "甚麽": "什么",
    "仗著": "仗着",
    "仗著書": "仗著书",
    "仗著錄": "仗著录",
    "仗著稱": "仗著称",
    "付帳": "付账",
    "代表著": "代表着",
    "代表著書": "代表著书",
    "代表著錄": "代表著录",
    "代表著稱": "代表著称",
    "乙太網": "以太网",
    "伊莉莎白": "伊丽莎白",
    "伊利諾": "伊利诺伊",
    "伊利諾伊": "伊利诺伊",
    "伊斯蘭瑪巴德": "伊斯兰堡",
    "伊斯坦堡": "伊斯坦布尔",
    "伏著": "伏着",
    "優先順序": "优先级",
    "傳著": "传着",
    "傳著書": "传著书",
    "傳著作": "传著作",
    "傳著名": "传著名",
    "傳著錄": "传著录",
    "傳著稱": "传著称",
    "傳著者": "传著者",
    "傳著述": "传著述",
    "貝里斯": "伯利兹",
    "伯明罕": "伯明翰",
    "伴著": "伴着",
    "伴著書": "伴著书",
    "伴著錄": "伴著录",
    "伴著稱": "伴著称",
    "點陣圖": "位图",
    "低著": "低着",
    "低著書": "低著书",
    "低著錄": "低著录",
    "低著稱": "低著称",
    "住著": "住着",
    "住著書": "住著书",
    "住著錄": "住著录",
    "住著稱": "住著称",
    "餘": "余",
    "維德角": "佛得角",
    "侏儸紀": "侏罗纪",
    "側著": "侧着",
    "側著書": "侧著书",
    "側著作": "侧著作",
    "側著名": "侧著名",
    "側著錄": "侧著录",
    "側著稱": "侧著称",
    "側著者": "侧著者",
    "側著述": "侧著述",
    "可攜式": "便携式",
    "攜帶型": "便携式",
    "促著": "促着",
    "保護著": "保护着",
    "保鑣": "保镖",
    "保障著": "保障着",
    "保障著書": "保障著书",
    "保障著錄": "保障著录",
    "保障著稱": "保障著称",
    "資訊時代": "信息时代",
    "資訊理論": "信息论",
    "信著": "信着",
    "信著書": "信著书",
    "信著錄": "信著录",
    "信著稱": "信著称",
    "伏地挺身": "俯卧撑",
    "掌上壓": "俯卧撑",
    "倒帳": "倒账",
    "候著": "候着",
    "候著書": "候著书",
    "候著錄": "候著录",
    "候著稱": "候著称",
    "借著": "借着",
    "藉著": "借着",
    "借著書": "借著书",
    "借著錄": "借著录",
    "借著稱": "借著称",
    "假帳": "假账",
    "做著": "做着",
    "做著書": "做著书",
    "做著錄": "做著录",
    "做著稱": "做著称",
    "偷著": "偷着",
    "偷著書": "偷著书",
    "偷著錄": "偷著录",
    "偷著稱": "偷著称",
    "傅利葉": "傅里叶",
    "光著": "光着",
    "光著書": "光著书",
    "光著錄": "光著录",
    "光著稱": "光著称",
    "光碟機": "光驱",
    "柯林頓": "克林顿",
    "克羅埃西亞": "克罗地亚",
    "轉殖": "克隆",
    "複製人": "克隆人",
    "入帳": "入账",
    "八進位制": "八进位制",
    "八進位": "八进制",
    "西元1": "公元1",
    "西元2": "公元2",
    "西元3": "公元3",
    "西元4": "公元4",
    "西元5": "公元5",
    "西元6": "公元6",
    "西元7": "公元7",
    "西元8": "公元8",
    "西元9": "公元9",
    "西元前": "公元前",
    "公帳": "公账",
    "六進位制": "六进位制",
    "六進位": "六进制",
    "關著": "关着",
    "關係著": "关系着",
    "關著書": "关著书",
    "關著作": "关著作",
    "關著名": "关著名",
    "關著錄": "关著录",
    "關著稱": "关著称",
    "關著者": "关著者",
    "關著述": "关著述",
    "關帳": "关账",
    "記憶體": "内存",
    "奈洛比": "内罗毕",
    "甘比亞": "冈比亚",
    "冒著": "冒着",
    "冒著書": "冒著书",
    "冒著錄": "冒著录",
    "冒著稱": "冒著称",
    "寫著": "写着",
    "寫著書": "写著书",
    "寫著作": "写著作",
    "寫著名": "写著名",
    "寫著錄": "写著录",
    "寫著稱": "写著称",
    "寫著者": "写著者",
    "寫著述": "写著述",
    "沖著": "冲着",
    "衝著": "冲着",
    "沖著。": "冲著。",
    "沖著《": "冲著《",
    "沖著（": "冲著（",
    "沖著，": "冲著，",
    "沖帳": "冲账",
    "涼著": "凉着",
    "涼著書": "凉著书",
    "涼著作": "凉著作",
    "涼著名": "凉著名",
    "涼著錄": "凉著录",
    "涼著稱": "凉著称",
    "涼著者": "凉著者",
    "涼著述": "凉著述",
    "湊合著": "凑合着",
    "幾內亞比索": "几内亚比绍",
    "憑著": "凭着",
    "憑著作": "凭著作",
    "憑著名": "凭著名",
    "憑著者": "凭著者",
    "凱薩琳": "凯瑟琳",
    "嘉芙蓮": "凯瑟琳",
    "份內": "分内",
    "份外": "分外",
    "分佈著": "分布着",
    "分布著": "分布着",
    "解像度": "分辨率",
    "解析度": "分辨率",
    "份量": "分量",
    "車諾比": "切尔诺贝利",
    "劃著": "划着",
    "李奧納多": "列奥那多",
    "列支敦斯登": "列支敦士登",
    "賴比瑞亞": "利比里亚",
    "別著": "别着",
    "刮著": "刮着",
    "颳著": "刮着",
    "到帳": "到账",
    "制著": "制着",
    "制著書": "制著书",
    "制著錄": "制著录",
    "制著稱": "制著称",
    "煞車": "刹车",
    "刻著": "刻着",
    "刻著書": "刻著书",
    "刻著錄": "刻著录",
    "刻著稱": "刻著称",
    "前波莫瑞": "前波美拉尼亚",
    "辦著": "办着",
    "辦著書": "办著书",
    "辦著作": "办著作",
    "辦著名": "办著名",
    "辦著錄": "办著录",
    "辦著稱": "办著称",
    "辦著者": "办著者",
    "辦著述": "办著述",
    "加薩走廊": "加沙地带",
    "加泰隆尼亞": "加泰罗尼亚",
    "迦納": "加纳",
    "加彭": "加蓬",
    "動著": "动着",
    "動著書": "动著书",
    "動著作": "动著作",
    "動著名": "动著名",
    "動著錄": "动著录",
    "動著稱": "动著称",
    "動著者": "动著者",
    "動著述": "动著述",
    "努力著": "努力着",
    "努力著書": "努力著书",
    "努力著錄": "努力著录",
    "努力著稱": "努力著称",
    "蘿拉": "劳拉",
    "布蘭登堡": "勃兰登堡",
    "白朗寧": "勃朗宁",
    "包著": "包着",
    "北韓": "北朝鲜",
    "十進位制": "十进位制",
    "十進位": "十进制",
    "公升": "升",
    "單眼相機": "单反相机",
    "單鏡反光機": "单反相机",
    "波札那": "博茨瓦纳",
    "占著": "占着",
    "喀拉蚩": "卡拉奇",
    "卡斯楚": "卡斯特罗",
    "卡佩雅蒂": "卡普里亚蒂",
    "盧安達": "卢旺达",
    "羅浮宮": "卢浮宫",
    "羅亞爾": "卢瓦尔",
    "印著": "印着",
    "印著書": "印著书",
    "印著錄": "印著录",
    "印著稱": "印著称",
    "瓜地馬拉": "危地马拉",
    "厄瓜多": "厄瓜多尔",
    "厄瓜多爾": "厄瓜多尔",
    "厄利垂亚": "厄立特里亚",
    "厄利垂亞": "厄立特里亚",
    "厄立特里亞": "厄立特里亚",
    "壓著": "压着",
    "壓著書": "压著书",
    "壓著作": "压著作",
    "壓著名": "压著名",
    "壓著錄": "压著录",
    "壓著稱": "压著称",
    "壓著者": "压著者",
    "壓著述": "压著述",
    "發著": "发着",
    "發著《": "发著《",
    "發著作": "发著作",
    "發著名": "发著名",
    "發著稱": "发著称",
    "發著者": "发著者",
    "已開發國家": "发达国家",
    "受著": "受着",
    "受著書": "受著书",
    "受著錄": "受著录",
    "受著稱": "受著称",
    "變著": "变着",
    "變著書": "变著书",
    "變著作": "变著作",
    "變著名": "变著名",
    "變著錄": "变著录",
    "變著稱": "变著称",
    "變著者": "变著者",
    "變著述": "变著述",
    "隻字片語": "只字片语",
    "隻言片語": "只言片语",
    "唯讀": "只读",
    "叫著": "叫着",
    "叫著書": "叫著书",
    "叫著錄": "叫著录",
    "叫著稱": "叫著称",
    "台北韓": "台北韩",
    "桌上型電腦": "台式电脑",
    "撞球": "台球",
    "台帳": "台账",
    "叱吒": "叱咤",
    "吃著": "吃着",
    "結他": "吉他",
    "健力士世界紀錄": "吉尼斯世界纪录",
    "金氏世界紀錄": "吉尼斯世界纪录",
    "吉布地": "吉布提",
    "吊著": "吊着",
    "名份": "名分",
    "向著": "向着",
    "向著書": "向著书",
    "向著錄": "向著录",
    "向著稱": "向著称",
    "含著": "含着",
    "含著書": "含著书",
    "含著錄": "含著录",
    "含著稱": "含著称",
    "聽著": "听着",
    "聽著書": "听著书",
    "聽著作": "听著作",
    "聽著名": "听著名",
    "聽著錄": "听著录",
    "聽著稱": "听著称",
    "聽著者": "听著者",
    "聽著述": "听著述",
    "吹著": "吹着",
    "吹著書": "吹著书",
    "吹著錄": "吹著录",
    "吹著稱": "吹著称",
    "呆著": "呆着",
    "呆帳": "呆账",
    "味著": "味着",
    "味著書": "味著书",
    "味著錄": "味著录",
    "味著稱": "味著称",
    "咖哩": "咖喱",
    "諮": "咨",
    "咬著": "咬着",
    "響著": "响着",
    "響著書": "响著书",
    "響著作": "响著作",
    "響著名": "响著名",
    "響著錄": "响著录",
    "響著稱": "响著称",
    "響著者": "响著者",
    "響著述": "响著述",
    "哥斯大黎加": "哥斯达黎加",
    "哥德式": "哥特式",
    "哭著": "哭着",
    "哭著書": "哭著书",
    "哭著錄": "哭著录",
    "哭著稱": "哭著称",
    "唐納·川普": "唐纳德·特朗普",
    "當勞·特朗普": "唐纳德·特朗普",
    "當奴·特朗普": "唐纳德·特朗普",
    "唱著": "唱着",
    "唱著書": "唱著书",
    "唱著錄": "唱著录",
    "唱著稱": "唱著称",
    "啸吒": "啸咤",
    "喝著": "喝着",
    "喝著書": "喝著书",
    "喝著錄": "喝著录",
    "喝著稱": "喝著称",
    "嗅著": "嗅着",
    "雜訊": "噪声",
    "嚷著": "嚷着",
    "嚷著書": "嚷著书",
    "嚷著錄": "嚷著录",
    "嚷著稱": "嚷著称",
    "回著": "回着",
    "因著": "因着",
    "因著書": "因著书",
    "因著錄": "因著录",
    "因著稱": "因著称",
    "困著": "困着",
    "困著書": "困著书",
    "困著錄": "困著录",
    "困著稱": "困著称",
    "圍著": "围着",
    "圍著書": "围著书",
    "圍著作": "围著作",
    "圍著名": "围著名",
    "圍著錄": "围著录",
    "圍著稱": "围著称",
    "圍著者": "围著者",
    "圍著述": "围著述",
    "韌體": "固件",
    "固著": "固着",
    "西洋棋": "国际象棋",
    "土魯斯": "图卢兹",
    "吐瓦魯": "图瓦卢",
    "原子筆": "圆珠笔",
    "汕埠": "圣佩德罗苏拉",
    "聖露西亞": "圣卢西亚",
    "聖克里斯多福及尼維斯": "圣基茨和尼维斯",
    "聖吉斯納域斯": "圣基茨和尼维斯",
    "聖文森及格瑞那丁": "圣文森特和格林纳丁斯",
    "聖馬利諾": "圣马力诺",
    "蓋亞那": "圭亚那",
    "坐著": "坐着",
    "坐著書": "坐著书",
    "坐著錄": "坐著录",
    "坐著稱": "坐著称",
    "堅杜拜": "坚杜拜",
    "堅貞著": "坚贞着",
    "坦尚尼亞": "坦桑尼亚",
    "伊波拉": "埃博拉",
    "衣索匹亞": "埃塞俄比亚",
    "衣索比亞": "埃塞俄比亚",
    "艾菲爾": "埃菲尔",
    "葉里溫": "埃里温",
    "埋著": "埋着",
    "功能變數名稱": "域名",
    "網域名稱": "域名",
    "吉里巴斯": "基里巴斯",
    "堂姊": "堂姐",
    "坎培拉": "堪培拉",
    "塑膠袋": "塑料袋",
    "塞爾維亞與蒙特內哥羅": "塞尔维亚和黑山",
    "塞普勒斯": "塞浦路斯",
    "賽普勒斯": "塞浦路斯",
    "塞維亞": "塞维利亚",
    "西維爾": "塞维利亚",
    "塞席爾": "塞舌尔",
    "音效卡": "声卡",
    "備著": "备着",
    "備著書": "备著书",
    "備著作": "备著作",
    "備著名": "备著名",
    "備著錄": "备著录",
    "備著稱": "备著称",
    "備著者": "备著者",
    "備著述": "备著述",
    "外部連結": "外部链接",
    "托巴哥": "多巴哥",
    "都卜勒": "多普勒",
    "多明尼加": "多米尼加",
    "大姊": "大姐",
    "大姊姊": "大姐姐",
    "天份": "天分",
    "夾著": "夹着",
    "夾著書": "夹著书",
    "夾著作": "夹著作",
    "夾著名": "夹著名",
    "夾著錄": "夹著录",
    "夾著稱": "夹著称",
    "夾著者": "夹著者",
    "夾著述": "夹著述",
    "賓士": "奔驰",
    "歐巴馬": "奥巴马",
    "柯德莉·夏萍": "奥黛丽·赫本",
    "忌廉": "奶油",
    "荷里活": "好莱坞",
    "姊夫": "姐夫",
    "姊姊": "姐姐",
    "姊弟": "姐弟",
    "威爾斯": "威尔士",
    "威斯伐倫": "威斯特法伦",
    "字型大小": "字号",
    "欄位": "字段",
    "位元組": "字节",
    "存在著": "存在着",
    "存著": "存着",
    "學姊": "学姐",
    "學著": "学着",
    "學著書": "学著书",
    "學著作": "学著作",
    "學著名": "学著名",
    "學著錄": "学著录",
    "學著稱": "学著称",
    "學著者": "学著者",
    "學著述": "学著述",
    "太空飛行員": "宇航员",
    "太空衣": "宇航服",
    "守著": "守着",
    "守著書": "守著书",
    "守著錄": "守著录",
    "守著稱": "守著称",
    "安哈特": "安哈尔特",
    "安地卡及巴布達": "安提瓜和巴布达",
    "巨集": "宏",
    "定著": "定着",
    "定著書": "定著书",
    "定著錄": "定著录",
    "定著稱": "定著称",
    "波里活": "宝莱坞",
    "密执安": "密歇根",
    "密西根": "密歇根",
    "對著": "对着",
    "對著書": "对著书",
    "對著作": "对著作",
    "對著名": "对著名",
    "對著錄": "对著录",
    "對著稱": "对著称",
    "對著者": "对著者",
    "對著述": "对著述",
    "對帳": "对账",
    "尋著": "寻着",
    "尋著書": "寻著书",
    "尋著作": "寻著作",
    "尋著名": "寻著名",
    "尋著錄": "寻著录",
    "尋著稱": "寻著称",
    "尋著者": "寻著者",
    "尋著述": "寻著述",
    "飛彈": "导弹",
    "祖雲達斯": "尤文图斯",
    "奈及利亞": "尼日利亚",
    "尼日爾": "尼日尔",
    "區域網": "局域网",
    "區域網路": "局域网络",
    "螢幕": "屏幕",
    "展著": "展着",
    "展著書": "展著书",
    "展著錄": "展著录",
    "展著稱": "展著称",
    "瓦倫西亞": "巴伦西亚",
    "華倫西亞": "巴伦西亚",
    "巴塞隆拿": "巴塞罗那",
    "巴塞隆納": "巴塞罗那",
    "巴斯拉": "巴士拉",
    "帕邁拉環礁": "巴尔米拉环礁",
    "巴貝多": "巴巴多斯",
    "布殊": "布什",
    "布吉納法索": "布基纳法索",
    "布隆泉": "布隆方丹",
    "蒲隆地": "布隆迪",
    "希冀著": "希冀着",
    "席哈克": "希拉克",
    "希拉莉": "希拉里",
    "希拉蕊": "希拉里",
    "希特拉": "希特勒",
    "帛琉": "帕劳",
    "派屈克": "帕特里克",
    "頻寬": "带宽",
    "帶著": "带着",
    "帶著書": "带著书",
    "帶著作": "带著作",
    "帶著名": "带著名",
    "帶著錄": "带著录",
    "帶著稱": "带著称",
    "帶著者": "带著者",
    "帶著述": "带著述",
    "幫著": "帮着",
    "幫著書": "帮著书",
    "幫著作": "帮著作",
    "幫著名": "帮著名",
    "幫著錄": "帮著录",
    "幫著稱": "帮著称",
    "幫著者": "帮著者",
    "幫著述": "帮著述",
    "乾姊": "干姐",
    "幹著": "干着",
    "幹著稱": "幹著称",
    "庇護著": "庇护着",
    "庫德人": "库尔德人",
    "庫德族": "库尔德族",
    "應用程式": "应用程序",
    "應著": "应着",
    "應著書": "应著书",
    "應著作": "应著作",
    "應著名": "应著名",
    "應著錄": "应著录",
    "應著稱": "应著称",
    "應著者": "应著者",
    "應著述": "应著述",
    "建帳": "建账",
    "克卜勒": "开普勒",
    "開著": "开着",
    "開著書": "开著书",
    "開著作": "开著作",
    "開著名": "开著名",
    "開著錄": "开著录",
    "開著稱": "开著称",
    "開著者": "开著者",
    "開著述": "开著述",
    "開帳": "开账",
    "非同步": "异步",
    "若且唯若": "当且仅当",
    "當著": "当着",
    "當著書": "当著书",
    "當著作": "当著作",
    "當著名": "当著名",
    "當著錄": "当著录",
    "當著稱": "当著称",
    "當著者": "当著者",
    "當著述": "当著述",
    "錄影帶": "录像带",
    "形上學": "形而上学",
    "澈底": "彻底",
    "逕入": "径入",
    "逕到": "径到",
    "逕取": "径取",
    "逕啟": "径启",
    "逕寄": "径寄",
    "逕庭": "径庭",
    "逕往": "径往",
    "逕流": "径流",
    "逕自": "径自",
    "逕行": "径行",
    "逕迎": "径迎",
    "待著": "待着",
    "待著書": "待著书",
    "待著錄": "待著录",
    "待著稱": "待著称",
    "得著": "得着",
    "得著書": "得著书",
    "得著錄": "得著录",
    "得著稱": "得著称",
    "御姊": "御姐",
    "迴圈": "循环",
    "循著": "循着",
    "循著書": "循著书",
    "循著錄": "循著录",
    "循著稱": "循著称",
    "德勒斯登": "德累斯顿",
    "德希達": "德里达",
    "心著": "心着",
    "心著書": "心著书",
    "心著錄": "心著录",
    "心著稱": "心著称",
    "忍著": "忍着",
    "忍著書": "忍著书",
    "忍著錄": "忍著录",
    "忍著稱": "忍著称",
    "忙著": "忙着",
    "忙著書": "忙著书",
    "忙著錄": "忙著录",
    "忙著稱": "忙著称",
    "忠貞著": "忠贞着",
    "懷著": "怀着",
    "懷著書": "怀著书",
    "懷著作": "怀著作",
    "懷著名": "怀著名",
    "懷著錄": "怀著录",
    "懷著稱": "怀著称",
    "懷著者": "怀著者",
    "懷著述": "怀著述",
    "急著": "急着",
    "急著書": "急著书",
    "急著錄": "急著录",
    "急著稱": "急著称",
    "匯流排": "总线",
    "總帳": "总账",
    "戀著": "恋着",
    "戀著書": "恋著书",
    "戀著作": "恋著作",
    "戀著名": "恋著名",
    "戀著錄": "恋著录",
    "戀著稱": "恋著称",
    "戀著者": "恋著者",
    "戀著述": "恋著述",
    "恰如其份": "恰如其分",
    "悠著": "悠着",
    "悠著書": "悠著书",
    "悠著錄": "悠著录",
    "悠著稱": "悠著称",
    "慣著": "惯着",
    "慣著書": "惯著书",
    "慣著作": "惯著作",
    "慣著名": "惯著名",
    "慣著錄": "惯著录",
    "慣著稱": "惯著称",
    "慣著者": "惯著者",
    "慣著述": "惯著述",
    "想著": "想着",
    "想著書": "想著书",
    "想著錄": "想著录",
    "想著稱": "想著称",
    "義大利": "意大利",
    "戈巴契夫": "戈尔巴乔夫",
    "成份": "成分",
    "戰著": "战着",
    "戰著書": "战著书",
    "戰著作": "战著作",
    "戰著名": "战著名",
    "戰著錄": "战著录",
    "戰著稱": "战著称",
    "戰著者": "战著者",
    "戰著述": "战著述",
    "坎城": "戛纳",
    "黛安娜": "戴安娜",
    "戴著": "戴着",
    "戴著書": "戴著书",
    "戴著錄": "戴著录",
    "戴著稱": "戴著称",
    "索羅門群島": "所罗门群岛",
    "紮著": "扎着",
    "紮著書": "扎著书",
    "紮著作": "扎著作",
    "紮著名": "扎著名",
    "紮著錄": "扎著录",
    "紮著稱": "扎著称",
    "紮著者": "扎著者",
    "紮著述": "扎著述",
    "列印": "打印",
    "印表機": "打印机",
    "打著": "打着",
    "打著書": "打著书",
    "打著錄": "打著录",
    "打著稱": "打著称",
    "扛著": "扛着",
    "扛著書": "扛著书",
    "扛著錄": "扛著录",
    "扛著稱": "扛著称",
    "掃瞄": "扫描",
    "掃瞄器": "扫描仪",
    "抓著": "抓着",
    "抓著錄": "抓著录",
    "抓著稱": "抓著称",
    "投機份子": "投机分子",
    "護著": "护着",
    "護著書": "护著书",
    "護著作": "护著作",
    "護著名": "护著名",
    "護著錄": "护著录",
    "護著稱": "护著称",
    "護著者": "护著者",
    "護著述": "护著述",
    "報帳": "报账",
    "披著": "披着",
    "披著書": "披著书",
    "披著錄": "披著录",
    "披著稱": "披著称",
    "抬著": "抬着",
    "擡著": "抬着",
    "抬著錄": "抬著录",
    "抬著稱": "抬著称",
    "抱著": "抱着",
    "抱著錄": "抱著录",
    "抱著稱": "抱著称",
    "擔著": "担着",
    "拉著": "拉着",
    "拉著書": "拉著书",
    "拉著錄": "拉著录",
    "拉著稱": "拉著称",
    "拎著": "拎着",
    "拎著錄": "拎著录",
    "拎著稱": "拎著称",
    "拖著": "拖着",
    "拖著錄": "拖著录",
    "拖著稱": "拖著称",
    "拼著": "拼着",
    "拼著錄": "拼著录",
    "拼著稱": "拼著称",
    "拿著": "拿着",
    "拿著錄": "拿著录",
    "拿著稱": "拿著称",
    "持著": "持着",
    "持著錄": "持著录",
    "持著稱": "持著称",
    "掛著": "挂着",
    "挑著": "挑着",
    "挑著錄": "挑著录",
    "挑著稱": "挑著称",
    "擋著": "挡着",
    "擋著作": "挡著作",
    "擋著名": "挡著名",
    "擋著錄": "挡著录",
    "擋著稱": "挡著称",
    "擋著者": "挡著者",
    "擋著述": "挡著述",
    "掙著": "挣着",
    "掙著書": "挣著书",
    "掙著作": "挣著作",
    "掙著名": "挣著名",
    "掙著錄": "挣著录",
    "掙著稱": "挣著称",
    "掙著者": "挣著者",
    "掙著述": "挣著述",
    "揮著": "挥着",
    "揮著作": "挥著作",
    "揮著名": "挥著名",
    "揮著錄": "挥著录",
    "揮著稱": "挥著称",
    "揮著者": "挥著者",
    "揮著述": "挥著述",
    "挨著": "挨着",
    "挨著錄": "挨著录",
    "挨著稱": "挨著称",
    "捆著": "捆着",
    "捆著錄": "捆著录",
    "捆著稱": "捆著称",
    "據著": "据着",
    "據著書": "据著书",
    "據著作": "据著作",
    "據著名": "据著名",
    "據著錄": "据著录",
    "據著稱": "据著称",
    "據著者": "据著者",
    "據著述": "据著述",
    "積架": "捷豹",
    "掖著": "掖着",
    "掖著錄": "掖著录",
    "掖著稱": "掖著称",
    "接著": "接着",
    "接著錄": "接著录",
    "接著稱": "接著称",
    "控制項": "控件",
    "揉著": "揉着",
    "揉著書": "揉著书",
    "揉著錄": "揉著录",
    "揉著稱": "揉著称",
    "提著": "提着",
    "提著錄": "提著录",
    "提著稱": "提著称",
    "外掛程式": "插件",
    "摟著": "搂着",
    "摟著作": "搂著作",
    "摟著名": "搂著名",
    "摟著錄": "搂著录",
    "摟著稱": "搂著称",
    "摟著者": "搂著者",
    "摟著述": "搂著述",
    "搜尋引擎": "搜索引擎",
    "擺著": "摆着",
    "擺著作": "摆著作",
    "擺著名": "摆著名",
    "擺著錄": "摆著录",
    "擺著稱": "摆著称",
    "擺著者": "摆著者",
    "擺著述": "摆著述",
    "電單車": "摩托车",
    "戴卓爾": "撒切尔",
    "柴契爾": "撒切尔",
    "撼著": "撼着",
    "撼著書": "撼著书",
    "撼著錄": "撼著录",
    "撼著稱": "撼著称",
    "作業系統": "操作系统",
    "收錄著": "收录着",
    "收帳": "收账",
    "放著": "放着",
    "放著稱": "放著称",
    "放帳": "放账",
    "敞著": "敞着",
    "敞著錄": "敞著录",
    "敞著稱": "敞著称",
    "散佈著": "散布着",
    "散布著": "散布着",
    "數位訊號": "数字信号",
    "數碼訊號": "数字信号",
    "數位化": "数字化",
    "數位技術": "数字技术",
    "數位電視": "数字电视",
    "數碼電視": "数字电视",
    "數位音樂": "数字音乐",
    "資料庫": "数据库",
    "數著": "数着",
    "數位照相機": "数码照相机",
    "數位相機": "数码相机",
    "數著作": "数著作",
    "數著名": "数著名",
    "數著錄": "数著录",
    "數著稱": "数著称",
    "數著者": "数著者",
    "數著述": "数著述",
    "汶萊": "文莱",
    "鬥著": "斗着",
    "鬥著書": "斗著书",
    "鬥著作": "斗著作",
    "鬥著名": "斗著名",
    "鬥著錄": "斗著录",
    "鬥著稱": "斗著称",
    "鬥著者": "斗著者",
    "鬥著述": "斗著述",
    "斥著": "斥着",
    "斥著書": "斥著书",
    "斥著錄": "斥著录",
    "斥著稱": "斥著称",
    "史丹福大學": "斯坦福大学",
    "斯堪地那維亞": "斯堪的纳维亚",
    "史達林": "斯大林",
    "史瓦濟蘭": "斯威士兰",
    "斯洛維尼亞": "斯洛文尼亚",
    "史特勞斯": "斯特劳斯",
    "紐幾內亞": "新几内亚",
    "紐澤西": "新泽西",
    "紐西蘭": "新西兰",
    "舊帳": "旧账",
    "三藩市": "旧金山",
    "昂山素姬": "昂山素季",
    "翁山蘇姬": "昂山素季",
    "昂著": "昂着",
    "昂著書": "昂著书",
    "昂著錄": "昂著录",
    "昂著稱": "昂著称",
    "明白帳": "明白账",
    "映著": "映着",
    "映著書": "映著书",
    "映著錄": "映著录",
    "映著稱": "映著称",
    "顯示卡": "显卡",
    "顯著": "显著",
    "晃著": "晃着",
    "晃著錄": "晃著录",
    "晃著稱": "晃著称",
    "普利茲": "普利策",
    "蒲美蓬": "普密蓬",
    "蒲朗克": "普朗克",
    "電晶體": "晶体管",
    "智慧型": "智能",
    "智慧卡": "智能卡",
    "智慧手機": "智能手机",
    "暗著": "暗着",
    "暗著書": "暗著书",
    "暗著錄": "暗著录",
    "暗著稱": "暗著称",
    "有著": "有着",
    "有著書": "有著书",
    "有著錄": "有著录",
    "有著稱": "有著称",
    "伺服器": "服务器",
    "望著": "望着",
    "望著錄": "望著录",
    "望著稱": "望著称",
    "朝著": "朝着",
    "朝著錄": "朝著录",
    "朝著稱": "朝著称",
    "賓·拉登": "本·拉登",
    "本份": "本分",
    "賓拉登": "本拉登",
    "本本份份": "本本分分",
    "班傑明": "本杰明",
    "本著": "本着",
    "本著書": "本著书",
    "本著錄": "本著录",
    "本著稱": "本著称",
    "本帳": "本账",
    "機械人": "机器人",
    "工具機": "机床",
    "殺著": "杀着",
    "殺著書": "杀著书",
    "殺著作": "杀著作",
    "殺著名": "杀著名",
    "殺著錄": "杀著录",
    "殺著稱": "杀著称",
    "殺著者": "杀著者",
    "殺著述": "杀著述",
    "雜著": "杂着",
    "雜著書": "杂著书",
    "雜著作": "杂著作",
    "雜著名": "杂著名",
    "雜著錄": "杂著录",
    "雜著稱": "杂著称",
    "雜著者": "杂著者",
    "雜著述": "杂著述",
    "杜塞道夫": "杜塞尔多夫",
    "來著": "来着",
    "來著書": "来著书",
    "來著作": "来著作",
    "來著名": "来著名",
    "來著錄": "来著录",
    "來著稱": "来著称",
    "來著者": "来著者",
    "來著述": "来著述",
    "板著臉": "板着脸",
    "枕著": "枕着",
    "枕著錄": "枕著录",
    "枕著稱": "枕著称",
    "槍枝": "枪支",
    "柏林圍牆": "柏林墙",
    "查帳": "查账",
    "查維茲": "查韦斯",
    "標志著": "标志着",
    "標誌著": "标志着",
    "格瑞那達": "格林纳达",
    "格林美獎": "格莱美奖",
    "葛萊美獎": "格莱美奖",
    "森巴舞": "桑巴舞",
    "梅赫西迪": "梅赛德斯",
    "夢著": "梦着",
    "夢著書": "梦著书",
    "夢著作": "梦著作",
    "夢著名": "梦著名",
    "夢著錄": "梦著录",
    "夢著稱": "梦著称",
    "夢著者": "梦著者",
    "夢著述": "梦著述",
    "梳著": "梳着",
    "梳著錄": "梳著录",
    "梳著稱": "梳著称",
    "梵谷": "梵高",
    "欠帳": "欠账",
    "死帳": "死账",
    "庇里牛斯": "比利牛斯",
    "披索": "比索",
    "畢卡索": "毕加索",
    "茅利塔尼亞": "毛里塔尼亚",
    "模里西斯": "毛里求斯",
    "毛里裘斯": "毛里求斯",
    "公厘": "毫米",
    "公釐": "毫米",
    "氧份": "氧分",
    "胺基酸": "氨基酸",
    "水份": "水分",
    "水氣": "水汽",
    "求著": "求着",
    "求著書": "求著书",
    "求著錄": "求著录",
    "求著稱": "求著称",
    "漢諾瓦": "汉诺威",
    "沈著": "沉着",
    "沉著": "沉着",
    "沉著書": "沉著书",
    "沉著錄": "沉著录",
    "沉著稱": "沉著称",
    "沙地阿拉伯": "沙特阿拉伯",
    "沙烏地阿拉伯": "沙特阿拉伯",
    "沿著": "沿着",
    "沿著書": "沿著书",
    "沿著錄": "沿著录",
    "沿著稱": "沿著称",
    "玻里尼西亞": "波利尼西亚",
    "波士尼亞": "波斯尼亚",
    "波士尼亞與赫塞哥維納": "波斯尼亚和黑塞哥维那",
    "鐵達尼號": "泰坦尼克号",
    "幫浦": "泵",
    "辛巴威": "津巴布韦",
    "宏都拉斯": "洪都拉斯",
    "活著": "活着",
    "活著書": "活著书",
    "活著錄": "活著录",
    "活著稱": "活著称",
    "流水帳": "流水账",
    "流著": "流着",
    "流著書": "流著书",
    "流著錄": "流著录",
    "流著稱": "流著称",
    "流露著": "流露着",
    "浮著": "浮着",
    "蘭卡威": "浮罗交怡",
    "浮著書": "浮著书",
    "浮著錄": "浮著录",
    "浮著稱": "浮著称",
    "海洛英": "海洛因",
    "海浬": "海里",
    "塗著": "涂着",
    "潤著": "润着",
    "潤著書": "润著书",
    "潤著作": "润著作",
    "潤著名": "润著名",
    "潤著錄": "润著录",
    "潤著稱": "润著称",
    "潤著者": "润著者",
    "潤著述": "润著述",
    "混帳": "混账",
    "清帳": "清账",
    "渴著": "渴着",
    "渴著書": "渴著书",
    "渴著錄": "渴著录",
    "渴著稱": "渴著称",
    "原始碼": "源代码",
    "溢著": "溢着",
    "溢著書": "溢著书",
    "溢著錄": "溢著录",
    "溢著稱": "溢著称",
    "滿16進位": "满16进位",
    "滿二進位": "满二进位",
    "滿八進位": "满八进位",
    "滿六進位": "满六进位",
    "滿十六進位": "满十六进位",
    "滿十進位": "满十进位",
    "滿著": "满着",
    "滿著作": "满著作",
    "滿著名": "满著名",
    "滿著者": "满著者",
    "演著": "演着",
    "演著書": "演著书",
    "演著錄": "演著录",
    "演著稱": "演著称",
    "漫著": "漫着",
    "漫著書": "漫著书",
    "漫著錄": "漫著录",
    "漫著稱": "漫著称",
    "雷射": "激光",
    "點著": "点着",
    "點著作": "点著作",
    "點著名": "点著名",
    "點著錄": "点著录",
    "點著稱": "点著称",
    "點著者": "点著者",
    "點著述": "点著述",
    "爛帳": "烂账",
    "燒著": "烧着",
    "燒著作": "烧著作",
    "燒著名": "烧著名",
    "燒著錄": "烧著录",
    "燒著稱": "烧著称",
    "燒著者": "烧著者",
    "燒著述": "烧著述",
    "照著": "照着",
    "照著書": "照著书",
    "照著錄": "照著录",
    "照著稱": "照著称",
    "愛護著": "爱护着",
    "愛著": "爱着",
    "愛著書": "爱著书",
    "愛著作": "爱著作",
    "愛著名": "爱著名",
    "愛著錄": "爱著录",
    "愛著稱": "爱著称",
    "愛著者": "爱著者",
    "愛著述": "爱著述",
    "牽著": "牵着",
    "牽著書": "牵著书",
    "牽著作": "牵著作",
    "牽著名": "牵著名",
    "牽著錄": "牵著录",
    "牽著稱": "牵著称",
    "牽著者": "牵著者",
    "牽著述": "牵著述",
    "千里達": "特立尼达",
    "千里達及托巴哥": "特立尼达和多巴哥",
    "千里達托貝哥": "特立尼达和托巴哥",
    "德蕾莎·梅伊": "特蕾莎·梅",
    "文翠珊": "特蕾莎·梅",
    "狗隻": "犬只",
    "猶豫著": "犹豫着",
    "獨立國家國協": "独立国家联合体",
    "獨立國協": "独联体",
    "猜著": "猜着",
    "猜著書": "猜着书",
    "猜著錄": "猜著录",
    "猜著稱": "猜著称",
    "玩著": "玩着",
    "溫納圖": "瓦努阿图",
    "萬那杜": "瓦努阿图",
    "華勒沙": "瓦文萨",
    "華里沙": "瓦文萨",
    "甜著": "甜着",
    "甜著書": "甜著书",
    "甜著錄": "甜著录",
    "甜著稱": "甜著称",
    "用著": "用着",
    "用著書": "用著书",
    "用著錄": "用著录",
    "用著稱": "用著称",
    "A型肝炎": "甲型肝炎",
    "A肝": "甲肝",
    "電視劇集": "电视剧",
    "電視影集": "电视系列剧",
    "畫著": "画着",
    "畫著作": "画著作",
    "畫著名": "画著名",
    "畫著稱": "画著称",
    "畫著者": "画著者",
    "介面": "界面",
    "留著": "留着",
    "留著書": "留着书",
    "留著錄": "留著录",
    "留著稱": "留著称",
    "疑著": "疑着",
    "疑著書": "疑著书",
    "疑著錄": "疑著录",
    "疑著稱": "疑著称",
    "狂牛症": "疯牛病",
    "徵狀": "症状",
    "百慕達": "百慕大",
    "皮雅斯·布士南": "皮尔斯·布鲁斯南",
    "皺著": "皱着",
    "皺著書": "皱著书",
    "皺著作": "皱著作",
    "皺著名": "皱著名",
    "皺著錄": "皱著录",
    "皺著稱": "皱著称",
    "皺著者": "皱著者",
    "皺著述": "皱著述",
    "鹽份": "盐分",
    "蓋著": "盖着",
    "蓋著作": "盖著作",
    "蓋著名": "盖著名",
    "蓋著稱": "盖著称",
    "盛著": "盛着",
    "盛著書": "盛著书",
    "盛著錄": "盛著录",
    "盛著稱": "盛著称",
    "盯著": "盯着",
    "盯著書": "盯着书",
    "盯著錄": "盯著录",
    "盯著稱": "盯著称",
    "看著": "看着",
    "看著書": "看着书",
    "看著錄": "看著录",
    "看著稱": "看著称",
    "真人騷": "真人秀",
    "著業": "着业",
    "著絲": "着丝",
    "著麼": "着么",
    "著人": "着人",
    "著什": "着什",
    "著甚麼": "着什么",
    "著他": "着他",
    "著令": "着令",
    "著位": "着位",
    "著體": "着体",
    "著你": "着你",
    "著便": "着便",
    "著涼": "着凉",
    "著力": "着力",
    "著勁": "着劲",
    "著號": "着号",
    "著呢": "着呢",
    "著哩": "着哩",
    "著地": "着地",
    "著墨": "着墨",
    "著聲": "着声",
    "著處": "着处",
    "著她": "着她",
    "著妳": "着妳",
    "著它": "着它",
    "著定": "着定",
    "著實": "着实",
    "著己": "着己",
    "著帳": "着帐",
    "著床": "着床",
    "著庸": "着庸",
    "著式": "着式",
    "著錄": "著录",
    "著心": "着心",
    "著志": "着志",
    "著忙": "着忙",
    "著急": "着急",
    "著惱": "着恼",
    "著驚": "着惊",
    "著想": "着想",
    "著意": "着意",
    "著慌": "着慌",
    "著我": "着我",
    "著手": "着手",
    "著抹": "着抹",
    "著摸": "着摸",
    "著撰": "着撰",
    "著數": "着数",
    "著明": "着明",
    "著末": "着末",
    "著極": "着极",
    "著格": "着格",
    "著棋": "着棋",
    "著氣": "着气",
    "著法": "着法",
    "著淺": "着浅",
    "著火": "着火",
    "著然": "着然",
    "著甚": "着甚",
    "著生": "着生",
    "著疑": "着疑",
    "著白": "着白",
    "著相": "着相",
    "著眼": "着眼",
    "著著": "着着",
    "著祂": "着祂",
    "著積": "着积",
    "著稿": "着稿",
    "著筆": "着笔",
    "著籍": "着籍",
    "著緊": "着紧",
    "著緑": "着緑",
    "著絆": "着绊",
    "著績": "着绩",
    "著緋": "着绯",
    "著綠": "着绿",
    "著肉": "着肉",
    "著腳": "着脚",
    "著艦": "着舰",
    "著色": "着色",
    "著節": "着节",
    "著花": "着花",
    "著莫": "着莫",
    "著落": "着落",
    "著槁": "着藁",
    "著衣": "着衣",
    "著裝": "着装",
    "著要": "着要",
    "著警": "着警",
    "著趣": "着趣",
    "著邊": "着边",
    "著迷": "着迷",
    "著跡": "着迹",
    "著重": "着重",
    "著録": "着録",
    "著聞": "着闻",
    "著陸": "着陆",
    "著雝": "着雝",
    "著鞭": "着鞭",
    "著題": "着题",
    "著魔": "着魔",
    "睡著": "睡着",
    "睡著書": "睡著书",
    "睡著錄": "睡著录",
    "睡著稱": "睡著称",
    "瞞著": "瞒着",
    "瞞著書": "瞒著书",
    "瞞著作": "瞒著作",
    "瞞著名": "瞒著名",
    "瞞著錄": "瞒著录",
    "瞞著稱": "瞒著称",
    "瞞著者": "瞒著者",
    "瞞著述": "瞒著述",
    "瞧著": "瞧着",
    "瞧著書": "瞧着书",
    "瞧著錄": "瞧著录",
    "瞧著稱": "瞧著称",
    "瞪著": "瞪着",
    "瞪著書": "瞪著书",
    "瞪著錄": "瞪著录",
    "瞪著稱": "瞪著称",
    "矛盾著": "矛盾着",
    "智慧財產權": "知识产权",
    "智財權": "知识产权",
    "知識份子": "知识分子",
    "什勒斯維希": "石勒苏益格",
    "矽塵": "矽尘",
    "矽鋼": "矽钢",
    "矽": "硅",
    "矽片": "硅片",
    "矽谷": "硅谷",
    "硬體": "硬件",
    "硬碟": "硬盘",
    "磁碟": "磁盘",
    "磁軌": "磁道",
    "福馬林": "福尔马林",
    "福著": "福着",
    "福著書": "福著书",
    "福著錄": "福著录",
    "福著稱": "福著称",
    "私帳": "私账",
    "葛摩": "科摩罗",
    "象牙海岸": "科特迪瓦",
    "積極份子": "积极分子",
    "流動作業系統": "移动操作系统",
    "行動作業系統": "移动操作系统",
    "流動電話": "移动电话",
    "行動電話": "移动电话",
    "流動網絡": "移动网络",
    "行動網路": "移动网络",
    "程式設計師": "程序员",
    "程式控制": "程控",
    "空中巴士": "空中客车",
    "空氣品質": "空气质量",
    "空氣質素": "空气质量",
    "空著": "空着",
    "空著書": "空著书",
    "空著錄": "空著录",
    "空著稱": "空著称",
    "穿著": "穿着",
    "穿著書": "穿著书",
    "穿著錄": "穿著录",
    "穿著稱": "穿著称",
    "突尼西亞": "突尼斯",
    "立著": "立着",
    "立著稱": "立著称",
    "豎著": "竖着",
    "豎著書": "竖著书",
    "豎著作": "竖著作",
    "豎著名": "竖著名",
    "豎著錄": "竖著录",
    "豎著稱": "竖著称",
    "豎著者": "竖著者",
    "豎著述": "竖著述",
    "站著": "站着",
    "站著書": "站著书",
    "站著錄": "站著录",
    "站著稱": "站著称",
    "笑著": "笑着",
    "笑著書": "笑著书",
    "笑著錄": "笑著录",
    "笑著稱": "笑著称",
    "筆帳": "笔账",
    "提比里西": "第比利斯",
    "簽著": "签着",
    "簽帳": "签账",
    "運算元": "算子",
    "演算法": "算法",
    "算帳": "算账",
    "管著": "管着",
    "管著書": "管著书",
    "管著錄": "管著录",
    "管著稱": "管著称",
    "管帳": "管账",
    "公尺": "米",
    "糊塗帳": "糊涂账",
    "糖份": "糖分",
    "動畫影集": "系列动画片",
    "繫著": "系着",
    "索忍尼辛": "索尔仁尼琴",
    "索贊尼辛": "索尔仁尼琴",
    "蘇辛尼津": "索尔仁尼琴",
    "索馬利亞": "索马里",
    "索馬利蘭": "索马里兰",
    "正體中文": "繁体中文",
    "強斯頓環礁": "约翰斯顿岛",
    "紀錄著": "纪录着",
    "縱著": "纵着",
    "組份": "组分",
    "經常帳": "经常账",
    "經濟帳": "经济账",
    "綁著": "绑着",
    "綁著書": "绑著书",
    "綁著作": "绑著作",
    "綁著名": "绑著名",
    "綁著錄": "绑著录",
    "綁著稱": "绑著称",
    "綁著者": "绑著者",
    "綁著述": "绑著述",
    "結帳": "结账",
    "繞著": "绕着",
    "繞著書": "绕著书",
    "繞著作": "绕著作",
    "繞著名": "绕著名",
    "繞著錄": "绕著录",
    "繞著稱": "绕著称",
    "繞著者": "绕著者",
    "繞著述": "绕著述",
    "維根斯坦": "维特根斯坦",
    "繃著": "绷着",
    "緣份": "缘分",
    "纏著": "缠着",
    "纏著書": "缠著书",
    "纏著作": "缠著作",
    "纏著名": "缠著名",
    "纏著錄": "缠著录",
    "纏著稱": "缠著称",
    "纏著者": "缠著者",
    "纏著述": "缠著述",
    "網站連結": "网站链接",
    "網路": "网络",
    "網頁連結": "网页链接",
    "罩著": "罩着",
    "罩著書": "罩著书",
    "罩著錄": "罩著录",
    "罩著稱": "罩著称",
    "美著": "美着",
    "美著書": "美著书",
    "美著錄": "美著录",
    "美著稱": "美著称",
    "耀著": "耀着",
    "耀著書": "耀著书",
    "耀著錄": "耀著录",
    "耀著稱": "耀著称",
    "寮國": "老挝",
    "寮人民民主共和國": "老挝人民民主共和国",
    "寮語": "老挝语",
    "考著": "考着",
    "考著書": "考著书",
    "考著錄": "考著录",
    "考著稱": "考著称",
    "職份": "职分",
    "辛康納利": "肖恩·康纳利",
    "蕭士塔高維奇": "肖斯塔科维奇",
    "蕭士達高維契": "肖斯塔科维奇",
    "甘迺迪": "肯尼迪",
    "背著": "背着",
    "背著書": "背著书",
    "背著錄": "背著录",
    "背著稱": "背著称",
    "膠著": "胶着",
    "膠著書": "胶著书",
    "膠著作": "胶著作",
    "膠著名": "胶著名",
    "膠著錄": "胶著录",
    "膠著稱": "胶著称",
    "膠著者": "胶著者",
    "膠著述": "胶著述",
    "舒麥加": "舒马赫",
    "太空梭": "航天飞机",
    "穿梭機": "航天飞机",
    "愛滋": "艾滋",
    "晶元": "芯片",
    "晶片": "芯片",
    "蘇利南": "苏里南",
    "苦著": "苦着",
    "苦著書": "苦著书",
    "苦著錄": "苦著录",
    "苦著稱": "苦著称",
    "英吋": "英寸",
    "英呎": "英尺",
    "共和联邦": "英联邦",
    "大英國協": "英联邦",
    "士多啤梨": "草莓",
    "螢光棒": "荧光棒",
    "螢屏": "荧屏",
    "霍爾斯坦": "荷尔斯泰因",
    "荷里活廣場": "荷里活广场",
    "莫三比克": "莫桑比克",
    "雷伊泰灣": "莱特湾",
    "賴索托": "莱索托",
    "獲著": "获着",
    "穫著": "获着",
    "獲著書": "获著书",
    "獲著作": "获著作",
    "獲著名": "获著名",
    "獲著錄": "获著录",
    "獲著稱": "获著称",
    "獲著者": "获著者",
    "獲著述": "获著述",
    "塞拉耶佛": "萨拉热窝",
    "落著": "落着",
    "落著書": "落著书",
    "落著錄": "落著录",
    "落著稱": "落著称",
    "蒙特婁": "蒙特利尔",
    "蒙著": "蒙着",
    "蒙著書": "蒙著书",
    "蒙著錄": "蒙著录",
    "蒙著稱": "蒙著称",
    "藍芽": "蓝牙",
    "蘊涵著": "蕴涵着",
    "薛丁格": "薛定谔",
    "藏著": "藏着",
    "藏著書": "藏著书",
    "藏著錄": "藏著录",
    "藏著稱": "藏著称",
    "蘸著": "蘸着",
    "蘸著書": "蘸著书",
    "蘸著錄": "蘸著录",
    "蘸著稱": "蘸著称",
    "行人路權": "行人路权",
    "行著": "行着",
    "行著書": "行著书",
    "行著錄": "行著录",
    "行著稱": "行著称",
    "衣著": "衣着",
    "衣著書": "衣著书",
    "衣著錄": "衣著录",
    "衣著稱": "衣著称",
    "表姊": "表姐",
    "裝著": "装着",
    "裝著書": "装著书",
    "裝著作": "装著作",
    "裝著名": "装著名",
    "裝著錄": "装著录",
    "裝著稱": "装著称",
    "裝著者": "装著者",
    "裝著述": "装著述",
    "裹著": "裹着",
    "裹著書": "裹著书",
    "裹著錄": "裹著录",
    "裹著稱": "裹著称",
    "要帳": "要账",
    "覆蓋著": "覆盖着",
    "覆著": "覆着",
    "見著": "见著",
    "見著書": "见著书",
    "見著作": "见著作",
    "見著名": "见著名",
    "見著錄": "见著录",
    "見著稱": "见著称",
    "見著者": "见著者",
    "見著述": "见著述",
    "規畫": "规划",
    "視著": "视着",
    "視著作": "视著作",
    "視著名": "视著名",
    "視著稱": "视著称",
    "視著者": "视著者",
    "占士邦": "詹姆斯·邦德",
    "警戒著": "警戒着",
    "計畫": "计划",
    "電腦程式": "计算机程序",
    "認帳": "认账",
    "記錄著": "记录着",
    "記著": "记着",
    "記著書": "记著书",
    "記著作": "记著作",
    "記著名": "记著名",
    "記著錄": "记著录",
    "記著稱": "记著称",
    "記著者": "记著者",
    "記著述": "记著述",
    "記帳": "记账",
    "片語": "词组",
    "試著": "试着",
    "試著書": "试著书",
    "試著作": "试著作",
    "試著名": "试著名",
    "試著錄": "试著录",
    "試著稱": "试著称",
    "試著者": "试著者",
    "試著述": "试著述",
    "語著": "语着",
    "語著書": "语著书",
    "語著作": "语著作",
    "語著名": "语著名",
    "語著錄": "语著录",
    "語著稱": "语著称",
    "語著者": "语著者",
    "語著述": "语著述",
    "說著": "说着",
    "說著作": "说著作",
    "說著稱": "说著称",
    "說著者": "说著者",
    "說著述": "说著述",
    "諾曼第": "诺曼底",
    "數據機": "调制解调器",
    "象徵著": "象征着",
    "象徵著名": "象征著名",
    "碧咸": "贝克汉姆",
    "貝爾格勒": "贝尔格莱德",
    "負著": "负着",
    "貢寮": "贡寮",
    "帳上": "账上",
    "帳冊": "账册",
    "帳務": "账务",
    "帳單": "账单",
    "帳號": "账号",
    "帳外": "账外",
    "帳戶": "账户",
    "帳房": "账房",
    "帳本": "账本",
    "帳款": "账款",
    "帳目": "账目",
    "帳簿": "账簿",
    "帳面": "账面",
    "賒帳": "赊账",
    "賴帳": "赖账",
    "尚比亞": "赞比亚",
    "西臺人": "赫梯人",
    "西臺國": "赫梯国",
    "西臺帝": "赫梯帝",
    "西臺文": "赫梯文",
    "西臺族": "赫梯族",
    "西臺王": "赫梯王",
    "西臺語": "赫梯语",
    "赫魯雪夫": "赫鲁晓夫",
    "走為上著": "走为上着",
    "走著": "走着",
    "走著書": "走著书",
    "走著錄": "走著录",
    "走著稱": "走著称",
    "趕著": "赶着",
    "趕著書": "赶著书",
    "趕著作": "赶著作",
    "趕著名": "赶著名",
    "趕著錄": "赶著录",
    "趕著稱": "赶著称",
    "趕著者": "赶著者",
    "趕著述": "赶著述",
    "超連結": "超链接",
    "趴著": "趴着",
    "趴著書": "趴著书",
    "趴著錄": "趴著录",
    "趴著稱": "趴著称",
    "躍著": "跃着",
    "躍著書": "跃著书",
    "躍著作": "跃著作",
    "躍著名": "跃著名",
    "躍著錄": "跃著录",
    "躍著稱": "跃著称",
    "躍著者": "跃著者",
    "躍著述": "跃著述",
    "跑著": "跑着",
    "跑著書": "跑著书",
    "跑著錄": "跑著录",
    "跑著稱": "跑著称",
    "跟著": "跟着",
    "跟著書": "跟著书",
    "跟著錄": "跟著录",
    "跟著稱": "跟著称",
    "跪著": "跪着",
    "跪著書": "跪著书",
    "跪著錄": "跪著录",
    "跪著稱": "跪著称",
    "跳著": "跳着",
    "跳著書": "跳著书",
    "跳著錄": "跳著录",
    "跳著稱": "跳著称",
    "踏著": "踏着",
    "踏著書": "踏著书",
    "踏著錄": "踏著录",
    "踏著稱": "踏著称",
    "踩著": "踩着",
    "踩著書": "踩著书",
    "踩著錄": "踩著录",
    "踩著稱": "踩著称",
    "笨豬跳": "蹦极跳",
    "绑紧跳": "蹦极跳",
    "身分": "身份",
    "身著": "身着",
    "身著書": "身著书",
    "身著錄": "身著录",
    "身著稱": "身著称",
    "躺著": "躺着",
    "躺著書": "躺著书",
    "躺著錄": "躺著录",
    "躺著稱": "躺著称",
    "轉著": "转着",
    "轉著書": "转著书",
    "轉著作": "转著作",
    "轉著名": "转著名",
    "轉著錄": "转著录",
    "轉著稱": "转著称",
    "轉著者": "转著者",
    "轉著述": "转著述",
    "轉帳": "转账",
    "軟體": "软件",
    "軟體動物": "软体动物",
    "軟體家具": "软体家具",
    "軟體生物": "软体生物",
    "軟碟機": "软驱",
    "載著": "载着",
    "載著書": "载著书",
    "載著作": "载著作",
    "載著名": "载著名",
    "載著錄": "载著录",
    "載著稱": "载著称",
    "載著者": "载著者",
    "載著述": "载著述",
    "達·文西": "达·芬奇",
    "達著": "达着",
    "三蘭港": "达累斯萨拉姆",
    "達文西": "达芬奇",
    "達著書": "达著书",
    "達著作": "达著作",
    "達著名": "达著名",
    "達著錄": "达著录",
    "達著稱": "达著称",
    "達著者": "达著者",
    "達著述": "达著述",
    "過份": "过分",
    "過著": "过着",
    "過著作": "过著作",
    "過著名": "过著名",
    "過著錄": "过著录",
    "過著稱": "过著称",
    "過著者": "过著者",
    "過著述": "过著述",
    "米高·奧雲": "迈克尔·欧文",
    "還帳": "还账",
    "演化論": "进化论",
    "進帳": "进账",
    "連著": "连着",
    "連結他": "连结他",
    "連著書": "连著书",
    "連著作": "连著作",
    "連著名": "连著名",
    "連著錄": "连著录",
    "連著稱": "连著称",
    "連著者": "连著者",
    "連著述": "连著述",
    "杜拜": "迪拜",
    "迫著": "迫着",
    "疊代": "迭代",
    "追著": "追着",
    "追著書": "追著书",
    "追著錄": "追著录",
    "追著稱": "追著称",
    "逆著": "逆着",
    "逆著書": "逆著书",
    "逆著錄": "逆著录",
    "逆著稱": "逆著称",
    "逼著": "逼着",
    "逼著書": "逼著书",
    "逼著錄": "逼著录",
    "逼著稱": "逼著称",
    "遇著": "遇着",
    "遇著書": "遇著书",
    "遇著錄": "遇著录",
    "遇著稱": "遇著称",
    "遍佈著": "遍布着",
    "遍布著": "遍布着",
    "部份": "部分",
    "配合著": "配合着",
    "配著": "配着",
    "配著書": "配著书",
    "配著錄": "配著录",
    "配著稱": "配著称",
    "釀著": "酿着",
    "釀著書": "酿著书",
    "釀著作": "酿著作",
    "釀著名": "酿著名",
    "釀著錄": "酿著录",
    "釀著稱": "酿著称",
    "釀著者": "酿著者",
    "釀著述": "酿著述",
    "黎克特制": "里氏",
    "芮氏0": "里氏0",
    "芮氏1": "里氏1",
    "芮氏2": "里氏2",
    "芮氏3": "里氏3",
    "芮氏4": "里氏4",
    "芮氏5": "里氏5",
    "芮氏6": "里氏6",
    "芮氏7": "里氏7",
    "芮氏8": "里氏8",
    "芮氏9": "里氏9",
    "芮氏地震規模": "里氏地震规模",
    "芮氏規模": "里氏震级",
    "金夏沙": "金沙萨",
    "鈽": "钚",
    "鍅": "钫",
    "狄托": "铁托",
    "卯足": "铆足",
    "鋪著": "铺着",
    "鋪著書": "铺著书",
    "鋪著作": "铺著作",
    "鋪著名": "铺著名",
    "鋪著錄": "铺著录",
    "鋪著稱": "铺著称",
    "鋪著者": "铺著者",
    "鋪著述": "铺著述",
    "鏈結": "链接",
    "銷帳": "销账",
    "鉲": "锎",
    "鎝": "锝",
    "鉳": "锫",
    "鑀": "锿",
    "鋂": "镅",
    "錼": "镎",
    "孟德爾遜": "门德尔松",
    "孟德爾頌": "门德尔松",
    "快閃記憶體": "闪存",
    "閉著": "闭着",
    "閉著書": "闭著书",
    "閉著作": "闭著作",
    "閉著名": "闭著名",
    "閉著錄": "闭著录",
    "閉著稱": "闭著称",
    "閉著者": "闭著者",
    "閉著述": "闭著述",
    "閑著": "闲着",
    "閒著": "闲着",
    "閑著書": "闲著书",
    "閑著作": "闲著作",
    "閑著名": "闲著名",
    "閑著錄": "闲著录",
    "閑著稱": "闲著称",
    "閑著者": "闲著者",
    "閑著述": "闲著述",
    "悶著": "闷着",
    "鬧著": "闹着",
    "聞著": "闻着",
    "亞塞拜然": "阿塞拜疆",
    "阿布達比": "阿布扎比",
    "阿拉伯聯合大公國": "阿拉伯联合酋长国",
    "亞斯文": "阿斯旺",
    "附著": "附着",
    "附著書": "附著书",
    "附著錄": "附著录",
    "附著稱": "附著称",
    "陋著": "陋着",
    "陋著書": "陋著书",
    "陋著錄": "陋著录",
    "陋著稱": "陋著称",
    "陪著": "陪着",
    "陪著書": "陪著书",
    "陪著錄": "陪著录",
    "陪著稱": "陪著称",
    "隨著": "随着",
    "隨著書": "随著书",
    "隨著作": "随著作",
    "隨著名": "随著名",
    "隨著錄": "随著录",
    "隨著稱": "随著称",
    "隨著者": "随著者",
    "隨著述": "随著述",
    "私隱": "隐私",
    "隔著": "隔着",
    "隔著書": "隔著书",
    "隔著錄": "隔著录",
    "隔著稱": "隔著称",
    "耶加達": "雅加达",
    "雅爾達": "雅尔塔",
    "雅著": "雅着",
    "雅著書": "雅著书",
    "雅著錄": "雅著录",
    "雅著稱": "雅著称",
    "雷諾瓦": "雷诺阿",
    "荷姆茲": "霍尔木兹",
    "非份": "非分",
    "靠著": "靠着",
    "靠著錄": "靠著录",
    "靠著稱": "靠著称",
    "南韓": "韩国",
    "音樂錄影帶": "音乐录影带",
    "頂著": "顶着",
    "頂著書": "顶著书",
    "頂著作": "顶著作",
    "頂著名": "顶著名",
    "頂著錄": "顶著录",
    "頂著稱": "顶著称",
    "頂著者": "顶著者",
    "頂著述": "顶著述",
    "順著": "顺着",
    "順著書": "顺著书",
    "順著作": "顺著作",
    "順著名": "顺著名",
    "順著錄": "顺著录",
    "順著稱": "顺著称",
    "順著者": "顺著者",
    "順著述": "顺著述",
    "領著": "领着",
    "領著書": "领著书",
    "領著作": "领著作",
    "領著名": "领著名",
    "領著錄": "领著录",
    "領著稱": "领著称",
    "領著者": "领著者",
    "領著述": "领著述",
    "飃著": "飘着",
    "飄著": "飘着",
    "飄著書": "飘著书",
    "飄著作": "飘著作",
    "飄著名": "飘著名",
    "飄著錄": "飘著录",
    "飄著稱": "飘著称",
    "飄著者": "飘著者",
    "飄著述": "飘著述",
    "行政總裁": "首席执行官",
    "執行長、": "首席执行官、",
    "執行長。": "首席执行官。",
    "執行長，": "首席执行官，",
    "財務長、": "首席财务官、",
    "財務長。": "首席财务官。",
    "財務長，": "首席财务官，",
    "營運長、": "首席运营官、",
    "營運長。": "首席运营官。",
    "營運長，": "首席运营官，",
    "馬爾地夫": "马尔代夫",
    "萌島": "马恩岛",
    "馬拉威": "马拉维",
    "馬斯垂克": "马斯特里赫特",
    "馬爾他": "马耳他",
    "麻薩諸塞": "马萨诸塞",
    "馬利共和國": "马里共和国",
    "駛著": "驶着",
    "駕著": "驾着",
    "駕著書": "驾著书",
    "駕著作": "驾著作",
    "駕著名": "驾著名",
    "駕著錄": "驾著录",
    "駕著稱": "驾著称",
    "駕著者": "驾著者",
    "駕著述": "驾著述",
    "罵著": "骂着",
    "罵著書": "骂著书",
    "罵著作": "骂著作",
    "罵著名": "骂著名",
    "罵著錄": "骂著录",
    "罵著稱": "骂著称",
    "罵著者": "骂著者",
    "罵著述": "骂著述",
    "騎著": "骑着",
    "騎著書": "骑著书",
    "騎著作": "骑著作",
    "騎著名": "骑著名",
    "騎著錄": "骑著录",
    "騎著稱": "骑著称",
    "騎著者": "骑著者",
    "騎著述": "骑著述",
    "騙著": "骗着",
    "騙著書": "骗著书",
    "騙著作": "骗著作",
    "騙著名": "骗著名",
    "騙著錄": "骗著录",
    "騙著稱": "骗著称",
    "騙著者": "骗著者",
    "騙著述": "骗著述",
    "尖峰時段": "高峰时段",
    "尖峰時間": "高峰时间",
    "高畫質": "高清",
    "高著": "高着",
    "高著書": "高著书",
    "高著錄": "高著录",
    "高著稱": "高著称",
    "魚雷": "鱼雷",
    "咪高峰": "麦克风",
    "黏著": "黏着",
    "黏著書": "黏著书",
    "黏著錄": "黏著录",
    "黏著稱": "黏著称",
    "蒙特內哥羅": "黑山",
    "滑鼠": "鼠标",
    "。陞": "。升",
    "一釐": "一厘",
    "上昇": "上升",
    "么九": "幺九",
    "么二三": "幺二三",
    "么元": "幺元",
    "么兒": "幺儿",
    "么半": "幺半",
    "么叔": "幺叔",
    "么喝": "幺喝",
    "么女": "幺女",
    "么妹": "幺妹",
    "么姓": "幺姓",
    "么姨": "幺姨",
    "么娘": "幺娘",
    "么媽": "幺妈",
    "么孃": "幺娘",
    "么子": "幺子",
    "么小": "幺小",
    "么弟": "幺弟",
    "么正": "幺正",
    "么氏": "幺氏",
    "么爸": "幺爸",
    "么爹": "幺爹",
    "么爺": "幺爷",
    "么篇": "幺篇",
    "么舅": "幺舅",
    "么蛾子": "幺蛾子",
    "么雞": "幺鸡",
    "么鳳": "幺凤",
    "么麼": "幺麽",
    "乾一壇": "乾一坛",
    "乾乾淨淨": "干干净净",
    "乾乾脆脆": "干干脆脆",
    "乾儀": "乾仪",
    "乾剛": "乾刚",
    "乾劉": "乾刘",
    "乾務": "乾务",
    "乾啟": "乾启",
    "乾圖": "乾图",
    "乾寧": "乾宁",
    "乾岡": "乾冈",
    "乾崗": "乾岗",
    "乾斷": "乾断",
    "乾暉": "乾晖",
    "乾棟": "乾栋",
    "乾構": "乾构",
    "乾樞": "乾枢",
    "乾泉水": "干泉水",
    "乾為天": "乾为天",
    "乾為陽": "乾为阳",
    "乾竇": "乾窦",
    "乾篤": "乾笃",
    "乾紅": "乾红",
    "乾紐": "乾纽",
    "乾絡": "乾络",
    "乾統": "乾统",
    "乾維": "乾维",
    "乾綱": "乾纲",
    "乾縣": "乾县",
    "乾羅": "乾罗",
    "乾興": "乾兴",
    "乾蔭": "乾荫",
    "乾象歷": "乾象历",
    "乾貞": "乾贞",
    "乾貴士": "乾贵士",
    "乾貺": "乾贶",
    "乾車": "乾车",
    "乾軸": "乾轴",
    "乾鈞": "乾钧",
    "乾錄": "乾录",
    "乾鑒": "乾鉴",
    "乾闥": "乾闼",
    "乾靈": "乾灵",
    "乾顧": "乾顾",
    "乾風": "乾风",
    "乾馬": "乾马",
    "乾鵠": "乾鹄",
    "乾鵲": "乾鹊",
    "乾龍": "乾龙",
    "仰屋著書": "仰屋著书",
    "伊東豊雄": "伊东丰雄",
    "佛頭著糞": "佛头著粪",
    "侷促": "局促",
    "侷限": "局限",
    "候覆": "候复",
    "偵蒐": "侦搜",
    "先名後姓": "先名后姓",
    "兒寬": "兒宽",
    "內聯陞": "内联升",
    "六么": "六幺",
    "初昇": "初升",
    "剖釐": "剖厘",
    "博和託": "博和讬",
    "又陞": "又升",
    "反反覆覆": "反反复复",
    "反覆": "反复",
    "吃衣著飯": "吃衣著饭",
    "同陞和": "同升和",
    "吳克羣": "吴克羣",
    "噁心": "恶心",
    "回覆": "回复",
    "執著": "执著",
    "墨瀋": "墨渖",
    "夥計": "伙计",
    "大麴": "大曲",
    "天道為乾": "天道为乾",
    "奧區": "奧区",
    "如瀋": "如渖",
    "姓么": "姓幺",
    "子餘": "子馀",
    "孫乾": "孙乾",
    "官陞": "官升",
    "將軍抽俥": "将军抽俥",
    "將軍抽車": "将军抽車",
    "專著": "专著",
    "山崎闇齋": "山崎闇斋",
    "岳託": "岳讬",
    "年陞": "年升",
    "張法乾": "张法乾",
    "彰明較著": "彰明较著",
    "彷彿": "仿佛",
    "待覆": "待复",
    "復甦": "复苏",
    "恩威並著": "恩威并著",
    "情蒐": "情搜",
    "情鍾": "情钟",
    "慇勤": "殷勤",
    "慇懃": "殷勤",
    "慘澹": "惨淡",
    "慫慂": "怂恿",
    "慶餘": "庆馀",
    "憑藉": "凭借",
    "成效顯著": "成效显著",
    "成績顯著": "成绩显著",
    "所鍾": "所钟",
    "手鍊": "手链",
    "批覆": "批复",
    "拉鍊": "拉链",
    "拾瀋": "拾渖",
    "提昇": "提升",
    "搥胸頓足": "搥胸顿足",
    "效果顯著": "效果显著",
    "於之瑩": "於之莹",
    "於夫羅": "於夫罗",
    "於志賀": "於志贺",
    "於戲": "於戏",
    "於梨華": "於梨华",
    "於潛縣": "於潜县",
    "於賢德": "於贤德",
    "施讎": "施雠",
    "旋乾轉坤": "旋乾转坤",
    "昇仙": "升仙",
    "昇天": "升天",
    "昇平": "升平",
    "昇汞": "升汞",
    "昇華": "升华",
    "昇降": "升降",
    "易經乾": "易经乾",
    "晉陞": "晋升",
    "曠若發矇": "旷若发矇",
    "曾運乾": "曾运乾",
    "月陞": "月升",
    "李乾順": "李乾顺",
    "李澤鉅": "李泽钜",
    "柳詒徵": "柳诒徵",
    "校讎": "校雠",
    "榮陞": "荣升",
    "歷陞": "历升",
    "殘瀋": "残渖",
    "比較顯著": "比较显著",
    "毫釐": "毫厘",
    "氾濫": "泛滥",
    "沈沒": "沉没",
    "沈澱": "沉淀",
    "沈積": "沉积",
    "沈船": "沉船",
    "沈重": "沉重",
    "沈默": "沉默",
    "洗鍊": "洗练",
    "瀋液": "渖液",
    "無言不讎": "无言不雠",
    "爾冬陞": "尔冬升",
    "獨鍾": "独钟",
    "王餘魚": "王馀鱼",
    "甦醒": "苏醒",
    "男性為乾": "男性为乾",
    "男為乾": "男为乾",
    "療效顯著": "疗效显著",
    "白瀋": "白渖",
    "直昇": "直升",
    "瞭臺": "瞭台",
    "矇矓": "矇眬",
    "石碁鎮": "石碁镇",
    "硃砂": "朱砂",
    "硃紅": "朱红",
    "硃色": "朱色",
    "碁聖": "碁圣",
    "碩託": "硕讬",
    "穀陽": "穀阳",
    "穿著者": "穿着者",
    "竹昇": "竹升",
    "答覆": "答复",
    "米瀋": "米渖",
    "絪縕": "絪缊",
    "線國安": "缐国安",
    "線姓": "缐姓",
    "編著": "编著",
    "老么": "老幺",
    "肉乾乾": "肉干干",
    "肘手鍊足": "肘手链足",
    "著書": "著书",
    "著書立說": "著书立说",
    "著稱": "著称",
    "著錄規則": "著录规则",
    "蒐採": "搜采",
    "蒐索": "搜索",
    "蒐羅": "搜罗",
    "蒐藏": "搜藏",
    "蒐證": "搜证",
    "蒐購": "搜购",
    "蒐輯": "搜辑",
    "蒐采": "搜采",
    "蒐錄": "搜录",
    "蒐集": "搜集",
    "蕭乾": "萧乾",
    "薰心": "熏心",
    "薰沐": "熏沐",
    "薰習": "熏习",
    "薰陶": "熏陶",
    "薰香": "熏香",
    "薴烯": "苧烯",
    "藉助": "借助",
    "藉口": "借口",
    "藉手": "借手",
    "藉故": "借故",
    "藉機": "借机",
    "藉此": "借此",
    "藉由": "借由",
    "藉端": "借端",
    "藉詞": "借词",
    "蘋婆": "苹婆",
    "蘋果": "苹果",
    "蘭質薰心": "兰质薰心",
    "行餘": "行馀",
    "覆查": "复查",
    "覆核": "复核",
    "覆检": "复检",
    "覆蓋": "覆盖",
    "見微知著": "见微知著",
    "視微知著": "视微知著",
    "觔斗": "斤斗",
    "託庸": "讬庸",
    "託恩多": "讬恩多",
    "託麻": "讬麻",
    "論著": "论著",
    "諠譁": "喧哗",
    "謝肇淛": "谢肇淛",
    "譯著": "译著",
    "讎問": "雠问",
    "讎夷": "雠夷",
    "讎定": "雠定",
    "讎校": "雠校",
    "讎正": "雠正",
    "跼促": "局促",
    "跼限": "局限",
    "躊躇滿志": "踌躇滿志",
    "較著": "较著",
    "造麴": "造曲",
    "遶境": "绕境",
    "遺著": "遗著",
    "酒麴": "酒曲",
    "醉瀋": "醉渖",
    "醯壺": "醯壶",
    "醯醬": "醯酱",
    "醯雞": "醯鸡",
    "重覆": "重复",
    "釐改": "厘改",
    "釐整": "厘整",
    "釐正": "厘正",
    "釐毫": "厘毫",
    "釐清": "厘清",
    "釐訂": "厘订",
    "釐革": "厘革",
    "金鍊": "金链",
    "鉸鍊": "铰链",
    "銀硃": "银朱",
    "銀鍊": "银链",
    "鍊子": "链子",
    "鍊條": "链条",
    "鍊狀": "链状",
    "鍊表": "链表",
    "鍊錘": "链锤",
    "鍊鎖": "链锁",
    "鍾情": "钟情",
    "鍾意": "钟意",
    "鍾愛": "钟爱",
    "鍾靈": "钟灵",
    "鎖鍊": "锁链",
    "鐵鍊": "铁链",
    "閻懷禮": "闫怀礼",
    "陞了": "升了",
    "陞任": "升任",
    "陞官": "升官",
    "陞為": "升为",
    "陞用": "升用",
    "陞補": "升补",
    "陞遷": "升迁",
    "陳乾生": "陈乾生",
    "陳元扞": "陈元扞",
    "陳公乾生": "陈公乾生",
    "陳遇乾": "陈遇乾",
    "陸徵祥": "陆徵祥",
    "陽為乾": "阳为乾",
    "雪鍊": "雪链",
    "項鍊": "项链",
    "顯著地": "显著地",
    "顯著地位": "显著地位",
    "顯著性": "显著性",
    "顯著成績": "显著成绩",
    "顯著效果": "显著效果",
    "顯著特點": "显著特点",
    "飛昇": "飞升",
    "飽託": "饱讬",
    "餘慶": "馀庆",
    "餘瀋": "馀渖",
    "餬口": "糊口",
    "馬鞌": "马鞍",
    "高昇": "高升",
    "高陞": "高升",
    "魚乾乾": "鱼干干",
    "鹼菜": "硷菜",
    "麴黴": "曲霉",
    "麼氏": "麽氏",
    "黃潤乾": "黄润乾",
    "黃麴毒素": "黄曲毒素",
    "龍鍾": "龙钟"
}